^C:\USERS\MATTY\DOCUMENTS\VISUAL STUDIO 2015\PROJECTS\SMFLVJZB\SMFLVJZB\MAIN.CPP
C:\USERS\MATTY\DOCUMENTS\VISUAL STUDIO 2015\PROJECTS\SMFLVJZB\SMFLVJZB\DEBUG\VC140.PDB
C:\USERS\MATTY\DOCUMENTS\VISUAL STUDIO 2015\PROJECTS\SMFLVJZB\SMFLVJZB\DEBUG\VC140.IDB
C:\USERS\MATTY\DOCUMENTS\VISUAL STUDIO 2015\PROJECTS\SMFLVJZB\SMFLVJZB\DEBUG\MAIN.OBJ
